clone1_10x_data15_13TeV.00284285.physics_Main.MxAODDetailed.p2950.h015.root
clone2_10x_data15_13TeV.00284285.physics_Main.MxAODDetailed.p2950.h015.root
clone3_10x_data15_13TeV.00284285.physics_Main.MxAODDetailed.p2950.h015.root
clone4_10x_data15_13TeV.00284285.physics_Main.MxAODDetailed.p2950.h015.root
clone5_10x_data15_13TeV.00284285.physics_Main.MxAODDetailed.p2950.h015.root
clone6_10x_data15_13TeV.00284285.physics_Main.MxAODDetailed.p2950.h015.root
clone7_10x_data15_13TeV.00284285.physics_Main.MxAODDetailed.p2950.h015.root
clone8_10x_data15_13TeV.00284285.physics_Main.MxAODDetailed.p2950.h015.root
clone9_10x_data15_13TeV.00284285.physics_Main.MxAODDetailed.p2950.h015.root
clone10_10x_data15_13TeV.00284285.physics_Main.MxAODDetailed.p2950.h015.root
clone11_10x_data15_13TeV.00284285.physics_Main.MxAODDetailed.p2950.h015.root
clone12_10x_data15_13TeV.00284285.physics_Main.MxAODDetailed.p2950.h015.root
clone13_10x_data15_13TeV.00284285.physics_Main.MxAODDetailed.p2950.h015.root
clone14_10x_data15_13TeV.00284285.physics_Main.MxAODDetailed.p2950.h015.root
clone15_10x_data15_13TeV.00284285.physics_Main.MxAODDetailed.p2950.h015.root
clone16_10x_data15_13TeV.00284285.physics_Main.MxAODDetailed.p2950.h015.root
clone17_10x_data15_13TeV.00284285.physics_Main.MxAODDetailed.p2950.h015.root
clone18_10x_data15_13TeV.00284285.physics_Main.MxAODDetailed.p2950.h015.root
clone19_10x_data15_13TeV.00284285.physics_Main.MxAODDetailed.p2950.h015.root
clone20_10x_data15_13TeV.00284285.physics_Main.MxAODDetailed.p2950.h015.root
clone21_10x_data15_13TeV.00284285.physics_Main.MxAODDetailed.p2950.h015.root
clone22_10x_data15_13TeV.00284285.physics_Main.MxAODDetailed.p2950.h015.root
clone23_10x_data15_13TeV.00284285.physics_Main.MxAODDetailed.p2950.h015.root
clone24_10x_data15_13TeV.00284285.physics_Main.MxAODDetailed.p2950.h015.root
clone25_10x_data15_13TeV.00284285.physics_Main.MxAODDetailed.p2950.h015.root
clone26_10x_data15_13TeV.00284285.physics_Main.MxAODDetailed.p2950.h015.root
clone27_10x_data15_13TeV.00284285.physics_Main.MxAODDetailed.p2950.h015.root
clone28_10x_data15_13TeV.00284285.physics_Main.MxAODDetailed.p2950.h015.root
clone29_10x_data15_13TeV.00284285.physics_Main.MxAODDetailed.p2950.h015.root
clone30_10x_data15_13TeV.00284285.physics_Main.MxAODDetailed.p2950.h015.root
clone31_10x_data15_13TeV.00284285.physics_Main.MxAODDetailed.p2950.h015.root
clone32_10x_data15_13TeV.00284285.physics_Main.MxAODDetailed.p2950.h015.root
clone33_10x_data15_13TeV.00284285.physics_Main.MxAODDetailed.p2950.h015.root
clone34_10x_data15_13TeV.00284285.physics_Main.MxAODDetailed.p2950.h015.root
clone35_10x_data15_13TeV.00284285.physics_Main.MxAODDetailed.p2950.h015.root
clone36_10x_data15_13TeV.00284285.physics_Main.MxAODDetailed.p2950.h015.root
clone37_10x_data15_13TeV.00284285.physics_Main.MxAODDetailed.p2950.h015.root
clone38_10x_data15_13TeV.00284285.physics_Main.MxAODDetailed.p2950.h015.root
clone39_10x_data15_13TeV.00284285.physics_Main.MxAODDetailed.p2950.h015.root
clone40_10x_data15_13TeV.00284285.physics_Main.MxAODDetailed.p2950.h015.root
clone41_10x_data15_13TeV.00284285.physics_Main.MxAODDetailed.p2950.h015.root
clone42_10x_data15_13TeV.00284285.physics_Main.MxAODDetailed.p2950.h015.root
clone43_10x_data15_13TeV.00284285.physics_Main.MxAODDetailed.p2950.h015.root
clone44_10x_data15_13TeV.00284285.physics_Main.MxAODDetailed.p2950.h015.root
clone45_10x_data15_13TeV.00284285.physics_Main.MxAODDetailed.p2950.h015.root
clone46_10x_data15_13TeV.00284285.physics_Main.MxAODDetailed.p2950.h015.root
clone47_10x_data15_13TeV.00284285.physics_Main.MxAODDetailed.p2950.h015.root
clone48_10x_data15_13TeV.00284285.physics_Main.MxAODDetailed.p2950.h015.root
clone49_10x_data15_13TeV.00284285.physics_Main.MxAODDetailed.p2950.h015.root
clone50_10x_data15_13TeV.00284285.physics_Main.MxAODDetailed.p2950.h015.root
clone51_10x_data15_13TeV.00284285.physics_Main.MxAODDetailed.p2950.h015.root
clone52_10x_data15_13TeV.00284285.physics_Main.MxAODDetailed.p2950.h015.root
clone53_10x_data15_13TeV.00284285.physics_Main.MxAODDetailed.p2950.h015.root
clone54_10x_data15_13TeV.00284285.physics_Main.MxAODDetailed.p2950.h015.root
clone55_10x_data15_13TeV.00284285.physics_Main.MxAODDetailed.p2950.h015.root
clone56_10x_data15_13TeV.00284285.physics_Main.MxAODDetailed.p2950.h015.root
clone57_10x_data15_13TeV.00284285.physics_Main.MxAODDetailed.p2950.h015.root
clone58_10x_data15_13TeV.00284285.physics_Main.MxAODDetailed.p2950.h015.root
clone59_10x_data15_13TeV.00284285.physics_Main.MxAODDetailed.p2950.h015.root
clone60_10x_data15_13TeV.00284285.physics_Main.MxAODDetailed.p2950.h015.root
clone61_10x_data15_13TeV.00284285.physics_Main.MxAODDetailed.p2950.h015.root
clone62_10x_data15_13TeV.00284285.physics_Main.MxAODDetailed.p2950.h015.root
clone63_10x_data15_13TeV.00284285.physics_Main.MxAODDetailed.p2950.h015.root
clone64_10x_data15_13TeV.00284285.physics_Main.MxAODDetailed.p2950.h015.root
clone65_10x_data15_13TeV.00284285.physics_Main.MxAODDetailed.p2950.h015.root
clone66_10x_data15_13TeV.00284285.physics_Main.MxAODDetailed.p2950.h015.root
clone67_10x_data15_13TeV.00284285.physics_Main.MxAODDetailed.p2950.h015.root
clone68_10x_data15_13TeV.00284285.physics_Main.MxAODDetailed.p2950.h015.root
clone69_10x_data15_13TeV.00284285.physics_Main.MxAODDetailed.p2950.h015.root
clone70_10x_data15_13TeV.00284285.physics_Main.MxAODDetailed.p2950.h015.root
clone71_10x_data15_13TeV.00284285.physics_Main.MxAODDetailed.p2950.h015.root
clone72_10x_data15_13TeV.00284285.physics_Main.MxAODDetailed.p2950.h015.root
clone73_10x_data15_13TeV.00284285.physics_Main.MxAODDetailed.p2950.h015.root
clone74_10x_data15_13TeV.00284285.physics_Main.MxAODDetailed.p2950.h015.root
clone75_10x_data15_13TeV.00284285.physics_Main.MxAODDetailed.p2950.h015.root
clone76_10x_data15_13TeV.00284285.physics_Main.MxAODDetailed.p2950.h015.root
clone77_10x_data15_13TeV.00284285.physics_Main.MxAODDetailed.p2950.h015.root
clone78_10x_data15_13TeV.00284285.physics_Main.MxAODDetailed.p2950.h015.root
clone79_10x_data15_13TeV.00284285.physics_Main.MxAODDetailed.p2950.h015.root
clone80_10x_data15_13TeV.00284285.physics_Main.MxAODDetailed.p2950.h015.root
clone81_10x_data15_13TeV.00284285.physics_Main.MxAODDetailed.p2950.h015.root
clone82_10x_data15_13TeV.00284285.physics_Main.MxAODDetailed.p2950.h015.root
clone83_10x_data15_13TeV.00284285.physics_Main.MxAODDetailed.p2950.h015.root
clone84_10x_data15_13TeV.00284285.physics_Main.MxAODDetailed.p2950.h015.root
clone85_10x_data15_13TeV.00284285.physics_Main.MxAODDetailed.p2950.h015.root
clone86_10x_data15_13TeV.00284285.physics_Main.MxAODDetailed.p2950.h015.root
clone87_10x_data15_13TeV.00284285.physics_Main.MxAODDetailed.p2950.h015.root
clone88_10x_data15_13TeV.00284285.physics_Main.MxAODDetailed.p2950.h015.root
clone89_10x_data15_13TeV.00284285.physics_Main.MxAODDetailed.p2950.h015.root
clone90_10x_data15_13TeV.00284285.physics_Main.MxAODDetailed.p2950.h015.root
clone91_10x_data15_13TeV.00284285.physics_Main.MxAODDetailed.p2950.h015.root
clone92_10x_data15_13TeV.00284285.physics_Main.MxAODDetailed.p2950.h015.root
clone93_10x_data15_13TeV.00284285.physics_Main.MxAODDetailed.p2950.h015.root
clone94_10x_data15_13TeV.00284285.physics_Main.MxAODDetailed.p2950.h015.root
clone95_10x_data15_13TeV.00284285.physics_Main.MxAODDetailed.p2950.h015.root
clone96_10x_data15_13TeV.00284285.physics_Main.MxAODDetailed.p2950.h015.root
clone97_10x_data15_13TeV.00284285.physics_Main.MxAODDetailed.p2950.h015.root
clone98_10x_data15_13TeV.00284285.physics_Main.MxAODDetailed.p2950.h015.root
clone99_10x_data15_13TeV.00284285.physics_Main.MxAODDetailed.p2950.h015.root
clone100_10x_data15_13TeV.00284285.physics_Main.MxAODDetailed.p2950.h015.root
clone101_10x_data15_13TeV.00284285.physics_Main.MxAODDetailed.p2950.h015.root
clone102_10x_data15_13TeV.00284285.physics_Main.MxAODDetailed.p2950.h015.root
clone103_10x_data15_13TeV.00284285.physics_Main.MxAODDetailed.p2950.h015.root
clone104_10x_data15_13TeV.00284285.physics_Main.MxAODDetailed.p2950.h015.root
clone105_10x_data15_13TeV.00284285.physics_Main.MxAODDetailed.p2950.h015.root
clone106_10x_data15_13TeV.00284285.physics_Main.MxAODDetailed.p2950.h015.root
clone107_10x_data15_13TeV.00284285.physics_Main.MxAODDetailed.p2950.h015.root
clone108_10x_data15_13TeV.00284285.physics_Main.MxAODDetailed.p2950.h015.root
clone109_10x_data15_13TeV.00284285.physics_Main.MxAODDetailed.p2950.h015.root
clone110_10x_data15_13TeV.00284285.physics_Main.MxAODDetailed.p2950.h015.root
clone111_10x_data15_13TeV.00284285.physics_Main.MxAODDetailed.p2950.h015.root
clone112_10x_data15_13TeV.00284285.physics_Main.MxAODDetailed.p2950.h015.root
clone113_10x_data15_13TeV.00284285.physics_Main.MxAODDetailed.p2950.h015.root
clone114_10x_data15_13TeV.00284285.physics_Main.MxAODDetailed.p2950.h015.root
clone115_10x_data15_13TeV.00284285.physics_Main.MxAODDetailed.p2950.h015.root
clone116_10x_data15_13TeV.00284285.physics_Main.MxAODDetailed.p2950.h015.root
clone117_10x_data15_13TeV.00284285.physics_Main.MxAODDetailed.p2950.h015.root
clone118_10x_data15_13TeV.00284285.physics_Main.MxAODDetailed.p2950.h015.root
clone119_10x_data15_13TeV.00284285.physics_Main.MxAODDetailed.p2950.h015.root
clone120_10x_data15_13TeV.00284285.physics_Main.MxAODDetailed.p2950.h015.root
clone121_10x_data15_13TeV.00284285.physics_Main.MxAODDetailed.p2950.h015.root
clone122_10x_data15_13TeV.00284285.physics_Main.MxAODDetailed.p2950.h015.root
clone123_10x_data15_13TeV.00284285.physics_Main.MxAODDetailed.p2950.h015.root
clone124_10x_data15_13TeV.00284285.physics_Main.MxAODDetailed.p2950.h015.root
clone125_10x_data15_13TeV.00284285.physics_Main.MxAODDetailed.p2950.h015.root
clone126_10x_data15_13TeV.00284285.physics_Main.MxAODDetailed.p2950.h015.root
clone127_10x_data15_13TeV.00284285.physics_Main.MxAODDetailed.p2950.h015.root
clone128_10x_data15_13TeV.00284285.physics_Main.MxAODDetailed.p2950.h015.root
clone129_10x_data15_13TeV.00284285.physics_Main.MxAODDetailed.p2950.h015.root
clone130_10x_data15_13TeV.00284285.physics_Main.MxAODDetailed.p2950.h015.root
clone131_10x_data15_13TeV.00284285.physics_Main.MxAODDetailed.p2950.h015.root
clone132_10x_data15_13TeV.00284285.physics_Main.MxAODDetailed.p2950.h015.root
clone133_10x_data15_13TeV.00284285.physics_Main.MxAODDetailed.p2950.h015.root
clone134_10x_data15_13TeV.00284285.physics_Main.MxAODDetailed.p2950.h015.root
clone135_10x_data15_13TeV.00284285.physics_Main.MxAODDetailed.p2950.h015.root
clone136_10x_data15_13TeV.00284285.physics_Main.MxAODDetailed.p2950.h015.root
clone137_10x_data15_13TeV.00284285.physics_Main.MxAODDetailed.p2950.h015.root
clone138_10x_data15_13TeV.00284285.physics_Main.MxAODDetailed.p2950.h015.root
clone139_10x_data15_13TeV.00284285.physics_Main.MxAODDetailed.p2950.h015.root
clone140_10x_data15_13TeV.00284285.physics_Main.MxAODDetailed.p2950.h015.root
clone141_10x_data15_13TeV.00284285.physics_Main.MxAODDetailed.p2950.h015.root
clone142_10x_data15_13TeV.00284285.physics_Main.MxAODDetailed.p2950.h015.root
clone143_10x_data15_13TeV.00284285.physics_Main.MxAODDetailed.p2950.h015.root
clone144_10x_data15_13TeV.00284285.physics_Main.MxAODDetailed.p2950.h015.root
clone145_10x_data15_13TeV.00284285.physics_Main.MxAODDetailed.p2950.h015.root
clone146_10x_data15_13TeV.00284285.physics_Main.MxAODDetailed.p2950.h015.root
clone147_10x_data15_13TeV.00284285.physics_Main.MxAODDetailed.p2950.h015.root
clone148_10x_data15_13TeV.00284285.physics_Main.MxAODDetailed.p2950.h015.root
clone149_10x_data15_13TeV.00284285.physics_Main.MxAODDetailed.p2950.h015.root
clone150_10x_data15_13TeV.00284285.physics_Main.MxAODDetailed.p2950.h015.root
clone151_10x_data15_13TeV.00284285.physics_Main.MxAODDetailed.p2950.h015.root
clone152_10x_data15_13TeV.00284285.physics_Main.MxAODDetailed.p2950.h015.root
clone153_10x_data15_13TeV.00284285.physics_Main.MxAODDetailed.p2950.h015.root
clone154_10x_data15_13TeV.00284285.physics_Main.MxAODDetailed.p2950.h015.root
clone155_10x_data15_13TeV.00284285.physics_Main.MxAODDetailed.p2950.h015.root
clone156_10x_data15_13TeV.00284285.physics_Main.MxAODDetailed.p2950.h015.root
clone157_10x_data15_13TeV.00284285.physics_Main.MxAODDetailed.p2950.h015.root
clone158_10x_data15_13TeV.00284285.physics_Main.MxAODDetailed.p2950.h015.root
clone159_10x_data15_13TeV.00284285.physics_Main.MxAODDetailed.p2950.h015.root
clone160_10x_data15_13TeV.00284285.physics_Main.MxAODDetailed.p2950.h015.root
clone161_10x_data15_13TeV.00284285.physics_Main.MxAODDetailed.p2950.h015.root
clone162_10x_data15_13TeV.00284285.physics_Main.MxAODDetailed.p2950.h015.root
clone163_10x_data15_13TeV.00284285.physics_Main.MxAODDetailed.p2950.h015.root
clone164_10x_data15_13TeV.00284285.physics_Main.MxAODDetailed.p2950.h015.root
clone165_10x_data15_13TeV.00284285.physics_Main.MxAODDetailed.p2950.h015.root
clone166_10x_data15_13TeV.00284285.physics_Main.MxAODDetailed.p2950.h015.root
clone167_10x_data15_13TeV.00284285.physics_Main.MxAODDetailed.p2950.h015.root
clone168_10x_data15_13TeV.00284285.physics_Main.MxAODDetailed.p2950.h015.root
clone169_10x_data15_13TeV.00284285.physics_Main.MxAODDetailed.p2950.h015.root
clone170_10x_data15_13TeV.00284285.physics_Main.MxAODDetailed.p2950.h015.root
clone171_10x_data15_13TeV.00284285.physics_Main.MxAODDetailed.p2950.h015.root
clone172_10x_data15_13TeV.00284285.physics_Main.MxAODDetailed.p2950.h015.root
clone173_10x_data15_13TeV.00284285.physics_Main.MxAODDetailed.p2950.h015.root
clone174_10x_data15_13TeV.00284285.physics_Main.MxAODDetailed.p2950.h015.root
clone175_10x_data15_13TeV.00284285.physics_Main.MxAODDetailed.p2950.h015.root
clone176_10x_data15_13TeV.00284285.physics_Main.MxAODDetailed.p2950.h015.root
clone177_10x_data15_13TeV.00284285.physics_Main.MxAODDetailed.p2950.h015.root
clone178_10x_data15_13TeV.00284285.physics_Main.MxAODDetailed.p2950.h015.root
clone179_10x_data15_13TeV.00284285.physics_Main.MxAODDetailed.p2950.h015.root
clone180_10x_data15_13TeV.00284285.physics_Main.MxAODDetailed.p2950.h015.root
clone181_10x_data15_13TeV.00284285.physics_Main.MxAODDetailed.p2950.h015.root
clone182_10x_data15_13TeV.00284285.physics_Main.MxAODDetailed.p2950.h015.root
clone183_10x_data15_13TeV.00284285.physics_Main.MxAODDetailed.p2950.h015.root
clone184_10x_data15_13TeV.00284285.physics_Main.MxAODDetailed.p2950.h015.root
clone185_10x_data15_13TeV.00284285.physics_Main.MxAODDetailed.p2950.h015.root
clone186_10x_data15_13TeV.00284285.physics_Main.MxAODDetailed.p2950.h015.root
clone187_10x_data15_13TeV.00284285.physics_Main.MxAODDetailed.p2950.h015.root
clone188_10x_data15_13TeV.00284285.physics_Main.MxAODDetailed.p2950.h015.root
clone189_10x_data15_13TeV.00284285.physics_Main.MxAODDetailed.p2950.h015.root
clone190_10x_data15_13TeV.00284285.physics_Main.MxAODDetailed.p2950.h015.root
clone191_10x_data15_13TeV.00284285.physics_Main.MxAODDetailed.p2950.h015.root
clone192_10x_data15_13TeV.00284285.physics_Main.MxAODDetailed.p2950.h015.root
clone193_10x_data15_13TeV.00284285.physics_Main.MxAODDetailed.p2950.h015.root
clone194_10x_data15_13TeV.00284285.physics_Main.MxAODDetailed.p2950.h015.root
clone195_10x_data15_13TeV.00284285.physics_Main.MxAODDetailed.p2950.h015.root
clone196_10x_data15_13TeV.00284285.physics_Main.MxAODDetailed.p2950.h015.root
clone197_10x_data15_13TeV.00284285.physics_Main.MxAODDetailed.p2950.h015.root
clone198_10x_data15_13TeV.00284285.physics_Main.MxAODDetailed.p2950.h015.root
clone199_10x_data15_13TeV.00284285.physics_Main.MxAODDetailed.p2950.h015.root
clone200_10x_data15_13TeV.00284285.physics_Main.MxAODDetailed.p2950.h015.root
clone201_10x_data15_13TeV.00284285.physics_Main.MxAODDetailed.p2950.h015.root
clone202_10x_data15_13TeV.00284285.physics_Main.MxAODDetailed.p2950.h015.root
clone203_10x_data15_13TeV.00284285.physics_Main.MxAODDetailed.p2950.h015.root
clone204_10x_data15_13TeV.00284285.physics_Main.MxAODDetailed.p2950.h015.root
clone205_10x_data15_13TeV.00284285.physics_Main.MxAODDetailed.p2950.h015.root
clone206_10x_data15_13TeV.00284285.physics_Main.MxAODDetailed.p2950.h015.root
clone207_10x_data15_13TeV.00284285.physics_Main.MxAODDetailed.p2950.h015.root
clone208_10x_data15_13TeV.00284285.physics_Main.MxAODDetailed.p2950.h015.root
clone209_10x_data15_13TeV.00284285.physics_Main.MxAODDetailed.p2950.h015.root
clone210_10x_data15_13TeV.00284285.physics_Main.MxAODDetailed.p2950.h015.root
clone211_10x_data15_13TeV.00284285.physics_Main.MxAODDetailed.p2950.h015.root
clone212_10x_data15_13TeV.00284285.physics_Main.MxAODDetailed.p2950.h015.root
clone213_10x_data15_13TeV.00284285.physics_Main.MxAODDetailed.p2950.h015.root
clone214_10x_data15_13TeV.00284285.physics_Main.MxAODDetailed.p2950.h015.root
clone215_10x_data15_13TeV.00284285.physics_Main.MxAODDetailed.p2950.h015.root
clone216_10x_data15_13TeV.00284285.physics_Main.MxAODDetailed.p2950.h015.root
clone217_10x_data15_13TeV.00284285.physics_Main.MxAODDetailed.p2950.h015.root
clone218_10x_data15_13TeV.00284285.physics_Main.MxAODDetailed.p2950.h015.root
clone219_10x_data15_13TeV.00284285.physics_Main.MxAODDetailed.p2950.h015.root
clone220_10x_data15_13TeV.00284285.physics_Main.MxAODDetailed.p2950.h015.root
clone221_10x_data15_13TeV.00284285.physics_Main.MxAODDetailed.p2950.h015.root
clone222_10x_data15_13TeV.00284285.physics_Main.MxAODDetailed.p2950.h015.root
clone223_10x_data15_13TeV.00284285.physics_Main.MxAODDetailed.p2950.h015.root
clone224_10x_data15_13TeV.00284285.physics_Main.MxAODDetailed.p2950.h015.root
clone225_10x_data15_13TeV.00284285.physics_Main.MxAODDetailed.p2950.h015.root
clone226_10x_data15_13TeV.00284285.physics_Main.MxAODDetailed.p2950.h015.root
clone227_10x_data15_13TeV.00284285.physics_Main.MxAODDetailed.p2950.h015.root
clone228_10x_data15_13TeV.00284285.physics_Main.MxAODDetailed.p2950.h015.root
clone229_10x_data15_13TeV.00284285.physics_Main.MxAODDetailed.p2950.h015.root
clone230_10x_data15_13TeV.00284285.physics_Main.MxAODDetailed.p2950.h015.root
clone231_10x_data15_13TeV.00284285.physics_Main.MxAODDetailed.p2950.h015.root
clone232_10x_data15_13TeV.00284285.physics_Main.MxAODDetailed.p2950.h015.root
clone233_10x_data15_13TeV.00284285.physics_Main.MxAODDetailed.p2950.h015.root
clone234_10x_data15_13TeV.00284285.physics_Main.MxAODDetailed.p2950.h015.root
clone235_10x_data15_13TeV.00284285.physics_Main.MxAODDetailed.p2950.h015.root
clone236_10x_data15_13TeV.00284285.physics_Main.MxAODDetailed.p2950.h015.root
clone237_10x_data15_13TeV.00284285.physics_Main.MxAODDetailed.p2950.h015.root
clone238_10x_data15_13TeV.00284285.physics_Main.MxAODDetailed.p2950.h015.root
clone239_10x_data15_13TeV.00284285.physics_Main.MxAODDetailed.p2950.h015.root
clone240_10x_data15_13TeV.00284285.physics_Main.MxAODDetailed.p2950.h015.root
clone241_10x_data15_13TeV.00284285.physics_Main.MxAODDetailed.p2950.h015.root
clone242_10x_data15_13TeV.00284285.physics_Main.MxAODDetailed.p2950.h015.root
clone243_10x_data15_13TeV.00284285.physics_Main.MxAODDetailed.p2950.h015.root
clone244_10x_data15_13TeV.00284285.physics_Main.MxAODDetailed.p2950.h015.root
clone245_10x_data15_13TeV.00284285.physics_Main.MxAODDetailed.p2950.h015.root
clone246_10x_data15_13TeV.00284285.physics_Main.MxAODDetailed.p2950.h015.root
clone247_10x_data15_13TeV.00284285.physics_Main.MxAODDetailed.p2950.h015.root
clone248_10x_data15_13TeV.00284285.physics_Main.MxAODDetailed.p2950.h015.root
clone249_10x_data15_13TeV.00284285.physics_Main.MxAODDetailed.p2950.h015.root
clone250_10x_data15_13TeV.00284285.physics_Main.MxAODDetailed.p2950.h015.root
clone251_10x_data15_13TeV.00284285.physics_Main.MxAODDetailed.p2950.h015.root
clone252_10x_data15_13TeV.00284285.physics_Main.MxAODDetailed.p2950.h015.root
clone253_10x_data15_13TeV.00284285.physics_Main.MxAODDetailed.p2950.h015.root
clone254_10x_data15_13TeV.00284285.physics_Main.MxAODDetailed.p2950.h015.root
clone255_10x_data15_13TeV.00284285.physics_Main.MxAODDetailed.p2950.h015.root
clone256_10x_data15_13TeV.00284285.physics_Main.MxAODDetailed.p2950.h015.root
clone257_10x_data15_13TeV.00284285.physics_Main.MxAODDetailed.p2950.h015.root
clone258_10x_data15_13TeV.00284285.physics_Main.MxAODDetailed.p2950.h015.root
clone259_10x_data15_13TeV.00284285.physics_Main.MxAODDetailed.p2950.h015.root
clone260_10x_data15_13TeV.00284285.physics_Main.MxAODDetailed.p2950.h015.root
clone261_10x_data15_13TeV.00284285.physics_Main.MxAODDetailed.p2950.h015.root
clone262_10x_data15_13TeV.00284285.physics_Main.MxAODDetailed.p2950.h015.root
clone263_10x_data15_13TeV.00284285.physics_Main.MxAODDetailed.p2950.h015.root
clone264_10x_data15_13TeV.00284285.physics_Main.MxAODDetailed.p2950.h015.root
clone265_10x_data15_13TeV.00284285.physics_Main.MxAODDetailed.p2950.h015.root
clone266_10x_data15_13TeV.00284285.physics_Main.MxAODDetailed.p2950.h015.root
clone267_10x_data15_13TeV.00284285.physics_Main.MxAODDetailed.p2950.h015.root
clone268_10x_data15_13TeV.00284285.physics_Main.MxAODDetailed.p2950.h015.root
clone269_10x_data15_13TeV.00284285.physics_Main.MxAODDetailed.p2950.h015.root
clone270_10x_data15_13TeV.00284285.physics_Main.MxAODDetailed.p2950.h015.root
clone271_10x_data15_13TeV.00284285.physics_Main.MxAODDetailed.p2950.h015.root
clone272_10x_data15_13TeV.00284285.physics_Main.MxAODDetailed.p2950.h015.root
clone273_10x_data15_13TeV.00284285.physics_Main.MxAODDetailed.p2950.h015.root
clone274_10x_data15_13TeV.00284285.physics_Main.MxAODDetailed.p2950.h015.root
clone275_10x_data15_13TeV.00284285.physics_Main.MxAODDetailed.p2950.h015.root
clone276_10x_data15_13TeV.00284285.physics_Main.MxAODDetailed.p2950.h015.root
clone277_10x_data15_13TeV.00284285.physics_Main.MxAODDetailed.p2950.h015.root
clone278_10x_data15_13TeV.00284285.physics_Main.MxAODDetailed.p2950.h015.root
clone279_10x_data15_13TeV.00284285.physics_Main.MxAODDetailed.p2950.h015.root
clone280_10x_data15_13TeV.00284285.physics_Main.MxAODDetailed.p2950.h015.root
clone281_10x_data15_13TeV.00284285.physics_Main.MxAODDetailed.p2950.h015.root
clone282_10x_data15_13TeV.00284285.physics_Main.MxAODDetailed.p2950.h015.root
clone283_10x_data15_13TeV.00284285.physics_Main.MxAODDetailed.p2950.h015.root
clone284_10x_data15_13TeV.00284285.physics_Main.MxAODDetailed.p2950.h015.root
clone285_10x_data15_13TeV.00284285.physics_Main.MxAODDetailed.p2950.h015.root
clone286_10x_data15_13TeV.00284285.physics_Main.MxAODDetailed.p2950.h015.root
clone287_10x_data15_13TeV.00284285.physics_Main.MxAODDetailed.p2950.h015.root
clone288_10x_data15_13TeV.00284285.physics_Main.MxAODDetailed.p2950.h015.root
clone289_10x_data15_13TeV.00284285.physics_Main.MxAODDetailed.p2950.h015.root
clone290_10x_data15_13TeV.00284285.physics_Main.MxAODDetailed.p2950.h015.root
clone291_10x_data15_13TeV.00284285.physics_Main.MxAODDetailed.p2950.h015.root
clone292_10x_data15_13TeV.00284285.physics_Main.MxAODDetailed.p2950.h015.root
clone293_10x_data15_13TeV.00284285.physics_Main.MxAODDetailed.p2950.h015.root
clone294_10x_data15_13TeV.00284285.physics_Main.MxAODDetailed.p2950.h015.root
clone295_10x_data15_13TeV.00284285.physics_Main.MxAODDetailed.p2950.h015.root
clone296_10x_data15_13TeV.00284285.physics_Main.MxAODDetailed.p2950.h015.root
clone297_10x_data15_13TeV.00284285.physics_Main.MxAODDetailed.p2950.h015.root
clone298_10x_data15_13TeV.00284285.physics_Main.MxAODDetailed.p2950.h015.root
clone299_10x_data15_13TeV.00284285.physics_Main.MxAODDetailed.p2950.h015.root
clone300_10x_data15_13TeV.00284285.physics_Main.MxAODDetailed.p2950.h015.root
clone301_10x_data15_13TeV.00284285.physics_Main.MxAODDetailed.p2950.h015.root
clone302_10x_data15_13TeV.00284285.physics_Main.MxAODDetailed.p2950.h015.root
clone303_10x_data15_13TeV.00284285.physics_Main.MxAODDetailed.p2950.h015.root
clone304_10x_data15_13TeV.00284285.physics_Main.MxAODDetailed.p2950.h015.root
clone305_10x_data15_13TeV.00284285.physics_Main.MxAODDetailed.p2950.h015.root
clone306_10x_data15_13TeV.00284285.physics_Main.MxAODDetailed.p2950.h015.root
clone307_10x_data15_13TeV.00284285.physics_Main.MxAODDetailed.p2950.h015.root
clone308_10x_data15_13TeV.00284285.physics_Main.MxAODDetailed.p2950.h015.root
clone309_10x_data15_13TeV.00284285.physics_Main.MxAODDetailed.p2950.h015.root
clone310_10x_data15_13TeV.00284285.physics_Main.MxAODDetailed.p2950.h015.root
clone311_10x_data15_13TeV.00284285.physics_Main.MxAODDetailed.p2950.h015.root
clone312_10x_data15_13TeV.00284285.physics_Main.MxAODDetailed.p2950.h015.root
clone313_10x_data15_13TeV.00284285.physics_Main.MxAODDetailed.p2950.h015.root
clone314_10x_data15_13TeV.00284285.physics_Main.MxAODDetailed.p2950.h015.root
clone315_10x_data15_13TeV.00284285.physics_Main.MxAODDetailed.p2950.h015.root
clone316_10x_data15_13TeV.00284285.physics_Main.MxAODDetailed.p2950.h015.root
clone317_10x_data15_13TeV.00284285.physics_Main.MxAODDetailed.p2950.h015.root
clone318_10x_data15_13TeV.00284285.physics_Main.MxAODDetailed.p2950.h015.root
clone319_10x_data15_13TeV.00284285.physics_Main.MxAODDetailed.p2950.h015.root
clone320_10x_data15_13TeV.00284285.physics_Main.MxAODDetailed.p2950.h015.root
clone321_10x_data15_13TeV.00284285.physics_Main.MxAODDetailed.p2950.h015.root
clone322_10x_data15_13TeV.00284285.physics_Main.MxAODDetailed.p2950.h015.root
clone323_10x_data15_13TeV.00284285.physics_Main.MxAODDetailed.p2950.h015.root
clone324_10x_data15_13TeV.00284285.physics_Main.MxAODDetailed.p2950.h015.root
clone325_10x_data15_13TeV.00284285.physics_Main.MxAODDetailed.p2950.h015.root
clone326_10x_data15_13TeV.00284285.physics_Main.MxAODDetailed.p2950.h015.root
clone327_10x_data15_13TeV.00284285.physics_Main.MxAODDetailed.p2950.h015.root
clone328_10x_data15_13TeV.00284285.physics_Main.MxAODDetailed.p2950.h015.root
clone329_10x_data15_13TeV.00284285.physics_Main.MxAODDetailed.p2950.h015.root
clone330_10x_data15_13TeV.00284285.physics_Main.MxAODDetailed.p2950.h015.root
clone331_10x_data15_13TeV.00284285.physics_Main.MxAODDetailed.p2950.h015.root
clone332_10x_data15_13TeV.00284285.physics_Main.MxAODDetailed.p2950.h015.root
clone333_10x_data15_13TeV.00284285.physics_Main.MxAODDetailed.p2950.h015.root
clone334_10x_data15_13TeV.00284285.physics_Main.MxAODDetailed.p2950.h015.root
clone335_10x_data15_13TeV.00284285.physics_Main.MxAODDetailed.p2950.h015.root
clone336_10x_data15_13TeV.00284285.physics_Main.MxAODDetailed.p2950.h015.root
clone337_10x_data15_13TeV.00284285.physics_Main.MxAODDetailed.p2950.h015.root
clone338_10x_data15_13TeV.00284285.physics_Main.MxAODDetailed.p2950.h015.root
clone339_10x_data15_13TeV.00284285.physics_Main.MxAODDetailed.p2950.h015.root
clone340_10x_data15_13TeV.00284285.physics_Main.MxAODDetailed.p2950.h015.root
clone341_10x_data15_13TeV.00284285.physics_Main.MxAODDetailed.p2950.h015.root
clone342_10x_data15_13TeV.00284285.physics_Main.MxAODDetailed.p2950.h015.root
clone343_10x_data15_13TeV.00284285.physics_Main.MxAODDetailed.p2950.h015.root
clone344_10x_data15_13TeV.00284285.physics_Main.MxAODDetailed.p2950.h015.root
clone345_10x_data15_13TeV.00284285.physics_Main.MxAODDetailed.p2950.h015.root
clone346_10x_data15_13TeV.00284285.physics_Main.MxAODDetailed.p2950.h015.root
clone347_10x_data15_13TeV.00284285.physics_Main.MxAODDetailed.p2950.h015.root
clone348_10x_data15_13TeV.00284285.physics_Main.MxAODDetailed.p2950.h015.root
clone349_10x_data15_13TeV.00284285.physics_Main.MxAODDetailed.p2950.h015.root
clone350_10x_data15_13TeV.00284285.physics_Main.MxAODDetailed.p2950.h015.root
clone351_10x_data15_13TeV.00284285.physics_Main.MxAODDetailed.p2950.h015.root
clone352_10x_data15_13TeV.00284285.physics_Main.MxAODDetailed.p2950.h015.root
clone353_10x_data15_13TeV.00284285.physics_Main.MxAODDetailed.p2950.h015.root
clone354_10x_data15_13TeV.00284285.physics_Main.MxAODDetailed.p2950.h015.root
clone355_10x_data15_13TeV.00284285.physics_Main.MxAODDetailed.p2950.h015.root
clone356_10x_data15_13TeV.00284285.physics_Main.MxAODDetailed.p2950.h015.root
clone357_10x_data15_13TeV.00284285.physics_Main.MxAODDetailed.p2950.h015.root
clone358_10x_data15_13TeV.00284285.physics_Main.MxAODDetailed.p2950.h015.root
clone359_10x_data15_13TeV.00284285.physics_Main.MxAODDetailed.p2950.h015.root
clone360_10x_data15_13TeV.00284285.physics_Main.MxAODDetailed.p2950.h015.root
clone361_10x_data15_13TeV.00284285.physics_Main.MxAODDetailed.p2950.h015.root
clone362_10x_data15_13TeV.00284285.physics_Main.MxAODDetailed.p2950.h015.root
clone363_10x_data15_13TeV.00284285.physics_Main.MxAODDetailed.p2950.h015.root
clone364_10x_data15_13TeV.00284285.physics_Main.MxAODDetailed.p2950.h015.root
clone365_10x_data15_13TeV.00284285.physics_Main.MxAODDetailed.p2950.h015.root
clone366_10x_data15_13TeV.00284285.physics_Main.MxAODDetailed.p2950.h015.root
clone367_10x_data15_13TeV.00284285.physics_Main.MxAODDetailed.p2950.h015.root
clone368_10x_data15_13TeV.00284285.physics_Main.MxAODDetailed.p2950.h015.root
clone369_10x_data15_13TeV.00284285.physics_Main.MxAODDetailed.p2950.h015.root
clone370_10x_data15_13TeV.00284285.physics_Main.MxAODDetailed.p2950.h015.root
clone371_10x_data15_13TeV.00284285.physics_Main.MxAODDetailed.p2950.h015.root
clone372_10x_data15_13TeV.00284285.physics_Main.MxAODDetailed.p2950.h015.root
clone373_10x_data15_13TeV.00284285.physics_Main.MxAODDetailed.p2950.h015.root
clone374_10x_data15_13TeV.00284285.physics_Main.MxAODDetailed.p2950.h015.root
clone375_10x_data15_13TeV.00284285.physics_Main.MxAODDetailed.p2950.h015.root
clone376_10x_data15_13TeV.00284285.physics_Main.MxAODDetailed.p2950.h015.root
clone377_10x_data15_13TeV.00284285.physics_Main.MxAODDetailed.p2950.h015.root
clone378_10x_data15_13TeV.00284285.physics_Main.MxAODDetailed.p2950.h015.root
clone379_10x_data15_13TeV.00284285.physics_Main.MxAODDetailed.p2950.h015.root
clone380_10x_data15_13TeV.00284285.physics_Main.MxAODDetailed.p2950.h015.root
clone381_10x_data15_13TeV.00284285.physics_Main.MxAODDetailed.p2950.h015.root
clone382_10x_data15_13TeV.00284285.physics_Main.MxAODDetailed.p2950.h015.root
clone383_10x_data15_13TeV.00284285.physics_Main.MxAODDetailed.p2950.h015.root
clone384_10x_data15_13TeV.00284285.physics_Main.MxAODDetailed.p2950.h015.root
clone385_10x_data15_13TeV.00284285.physics_Main.MxAODDetailed.p2950.h015.root
clone386_10x_data15_13TeV.00284285.physics_Main.MxAODDetailed.p2950.h015.root
clone387_10x_data15_13TeV.00284285.physics_Main.MxAODDetailed.p2950.h015.root
clone388_10x_data15_13TeV.00284285.physics_Main.MxAODDetailed.p2950.h015.root
clone389_10x_data15_13TeV.00284285.physics_Main.MxAODDetailed.p2950.h015.root
clone390_10x_data15_13TeV.00284285.physics_Main.MxAODDetailed.p2950.h015.root
clone391_10x_data15_13TeV.00284285.physics_Main.MxAODDetailed.p2950.h015.root
clone392_10x_data15_13TeV.00284285.physics_Main.MxAODDetailed.p2950.h015.root
clone393_10x_data15_13TeV.00284285.physics_Main.MxAODDetailed.p2950.h015.root
clone394_10x_data15_13TeV.00284285.physics_Main.MxAODDetailed.p2950.h015.root
clone395_10x_data15_13TeV.00284285.physics_Main.MxAODDetailed.p2950.h015.root
clone396_10x_data15_13TeV.00284285.physics_Main.MxAODDetailed.p2950.h015.root
clone397_10x_data15_13TeV.00284285.physics_Main.MxAODDetailed.p2950.h015.root
clone398_10x_data15_13TeV.00284285.physics_Main.MxAODDetailed.p2950.h015.root
clone399_10x_data15_13TeV.00284285.physics_Main.MxAODDetailed.p2950.h015.root
clone400_10x_data15_13TeV.00284285.physics_Main.MxAODDetailed.p2950.h015.root
clone401_10x_data15_13TeV.00284285.physics_Main.MxAODDetailed.p2950.h015.root
clone402_10x_data15_13TeV.00284285.physics_Main.MxAODDetailed.p2950.h015.root
clone403_10x_data15_13TeV.00284285.physics_Main.MxAODDetailed.p2950.h015.root
clone404_10x_data15_13TeV.00284285.physics_Main.MxAODDetailed.p2950.h015.root
clone405_10x_data15_13TeV.00284285.physics_Main.MxAODDetailed.p2950.h015.root
clone406_10x_data15_13TeV.00284285.physics_Main.MxAODDetailed.p2950.h015.root
clone407_10x_data15_13TeV.00284285.physics_Main.MxAODDetailed.p2950.h015.root
clone408_10x_data15_13TeV.00284285.physics_Main.MxAODDetailed.p2950.h015.root
clone409_10x_data15_13TeV.00284285.physics_Main.MxAODDetailed.p2950.h015.root
clone410_10x_data15_13TeV.00284285.physics_Main.MxAODDetailed.p2950.h015.root
clone411_10x_data15_13TeV.00284285.physics_Main.MxAODDetailed.p2950.h015.root
clone412_10x_data15_13TeV.00284285.physics_Main.MxAODDetailed.p2950.h015.root
clone413_10x_data15_13TeV.00284285.physics_Main.MxAODDetailed.p2950.h015.root
clone414_10x_data15_13TeV.00284285.physics_Main.MxAODDetailed.p2950.h015.root
clone415_10x_data15_13TeV.00284285.physics_Main.MxAODDetailed.p2950.h015.root
clone416_10x_data15_13TeV.00284285.physics_Main.MxAODDetailed.p2950.h015.root
clone417_10x_data15_13TeV.00284285.physics_Main.MxAODDetailed.p2950.h015.root
clone418_10x_data15_13TeV.00284285.physics_Main.MxAODDetailed.p2950.h015.root
clone419_10x_data15_13TeV.00284285.physics_Main.MxAODDetailed.p2950.h015.root
clone420_10x_data15_13TeV.00284285.physics_Main.MxAODDetailed.p2950.h015.root
clone421_10x_data15_13TeV.00284285.physics_Main.MxAODDetailed.p2950.h015.root
clone422_10x_data15_13TeV.00284285.physics_Main.MxAODDetailed.p2950.h015.root
clone423_10x_data15_13TeV.00284285.physics_Main.MxAODDetailed.p2950.h015.root
clone424_10x_data15_13TeV.00284285.physics_Main.MxAODDetailed.p2950.h015.root
clone425_10x_data15_13TeV.00284285.physics_Main.MxAODDetailed.p2950.h015.root
clone426_10x_data15_13TeV.00284285.physics_Main.MxAODDetailed.p2950.h015.root
clone427_10x_data15_13TeV.00284285.physics_Main.MxAODDetailed.p2950.h015.root
clone428_10x_data15_13TeV.00284285.physics_Main.MxAODDetailed.p2950.h015.root
clone429_10x_data15_13TeV.00284285.physics_Main.MxAODDetailed.p2950.h015.root
clone430_10x_data15_13TeV.00284285.physics_Main.MxAODDetailed.p2950.h015.root
clone431_10x_data15_13TeV.00284285.physics_Main.MxAODDetailed.p2950.h015.root
clone432_10x_data15_13TeV.00284285.physics_Main.MxAODDetailed.p2950.h015.root
clone433_10x_data15_13TeV.00284285.physics_Main.MxAODDetailed.p2950.h015.root
clone434_10x_data15_13TeV.00284285.physics_Main.MxAODDetailed.p2950.h015.root
clone435_10x_data15_13TeV.00284285.physics_Main.MxAODDetailed.p2950.h015.root
clone436_10x_data15_13TeV.00284285.physics_Main.MxAODDetailed.p2950.h015.root
clone437_10x_data15_13TeV.00284285.physics_Main.MxAODDetailed.p2950.h015.root
clone438_10x_data15_13TeV.00284285.physics_Main.MxAODDetailed.p2950.h015.root
clone439_10x_data15_13TeV.00284285.physics_Main.MxAODDetailed.p2950.h015.root
clone440_10x_data15_13TeV.00284285.physics_Main.MxAODDetailed.p2950.h015.root
clone441_10x_data15_13TeV.00284285.physics_Main.MxAODDetailed.p2950.h015.root
clone442_10x_data15_13TeV.00284285.physics_Main.MxAODDetailed.p2950.h015.root
clone443_10x_data15_13TeV.00284285.physics_Main.MxAODDetailed.p2950.h015.root
clone444_10x_data15_13TeV.00284285.physics_Main.MxAODDetailed.p2950.h015.root
clone445_10x_data15_13TeV.00284285.physics_Main.MxAODDetailed.p2950.h015.root
clone446_10x_data15_13TeV.00284285.physics_Main.MxAODDetailed.p2950.h015.root
clone447_10x_data15_13TeV.00284285.physics_Main.MxAODDetailed.p2950.h015.root
clone448_10x_data15_13TeV.00284285.physics_Main.MxAODDetailed.p2950.h015.root
clone449_10x_data15_13TeV.00284285.physics_Main.MxAODDetailed.p2950.h015.root
clone450_10x_data15_13TeV.00284285.physics_Main.MxAODDetailed.p2950.h015.root
clone451_10x_data15_13TeV.00284285.physics_Main.MxAODDetailed.p2950.h015.root
clone452_10x_data15_13TeV.00284285.physics_Main.MxAODDetailed.p2950.h015.root
clone453_10x_data15_13TeV.00284285.physics_Main.MxAODDetailed.p2950.h015.root
clone454_10x_data15_13TeV.00284285.physics_Main.MxAODDetailed.p2950.h015.root
clone455_10x_data15_13TeV.00284285.physics_Main.MxAODDetailed.p2950.h015.root
clone456_10x_data15_13TeV.00284285.physics_Main.MxAODDetailed.p2950.h015.root
clone457_10x_data15_13TeV.00284285.physics_Main.MxAODDetailed.p2950.h015.root
clone458_10x_data15_13TeV.00284285.physics_Main.MxAODDetailed.p2950.h015.root
clone459_10x_data15_13TeV.00284285.physics_Main.MxAODDetailed.p2950.h015.root
clone460_10x_data15_13TeV.00284285.physics_Main.MxAODDetailed.p2950.h015.root
clone461_10x_data15_13TeV.00284285.physics_Main.MxAODDetailed.p2950.h015.root
clone462_10x_data15_13TeV.00284285.physics_Main.MxAODDetailed.p2950.h015.root
clone463_10x_data15_13TeV.00284285.physics_Main.MxAODDetailed.p2950.h015.root
clone464_10x_data15_13TeV.00284285.physics_Main.MxAODDetailed.p2950.h015.root
clone465_10x_data15_13TeV.00284285.physics_Main.MxAODDetailed.p2950.h015.root
clone466_10x_data15_13TeV.00284285.physics_Main.MxAODDetailed.p2950.h015.root
clone467_10x_data15_13TeV.00284285.physics_Main.MxAODDetailed.p2950.h015.root
clone468_10x_data15_13TeV.00284285.physics_Main.MxAODDetailed.p2950.h015.root
clone469_10x_data15_13TeV.00284285.physics_Main.MxAODDetailed.p2950.h015.root
clone470_10x_data15_13TeV.00284285.physics_Main.MxAODDetailed.p2950.h015.root
clone471_10x_data15_13TeV.00284285.physics_Main.MxAODDetailed.p2950.h015.root
clone472_10x_data15_13TeV.00284285.physics_Main.MxAODDetailed.p2950.h015.root
clone473_10x_data15_13TeV.00284285.physics_Main.MxAODDetailed.p2950.h015.root
clone474_10x_data15_13TeV.00284285.physics_Main.MxAODDetailed.p2950.h015.root
clone475_10x_data15_13TeV.00284285.physics_Main.MxAODDetailed.p2950.h015.root
clone476_10x_data15_13TeV.00284285.physics_Main.MxAODDetailed.p2950.h015.root
clone477_10x_data15_13TeV.00284285.physics_Main.MxAODDetailed.p2950.h015.root
clone478_10x_data15_13TeV.00284285.physics_Main.MxAODDetailed.p2950.h015.root
clone479_10x_data15_13TeV.00284285.physics_Main.MxAODDetailed.p2950.h015.root
clone480_10x_data15_13TeV.00284285.physics_Main.MxAODDetailed.p2950.h015.root
clone481_10x_data15_13TeV.00284285.physics_Main.MxAODDetailed.p2950.h015.root
clone482_10x_data15_13TeV.00284285.physics_Main.MxAODDetailed.p2950.h015.root
clone483_10x_data15_13TeV.00284285.physics_Main.MxAODDetailed.p2950.h015.root
clone484_10x_data15_13TeV.00284285.physics_Main.MxAODDetailed.p2950.h015.root
clone485_10x_data15_13TeV.00284285.physics_Main.MxAODDetailed.p2950.h015.root
clone486_10x_data15_13TeV.00284285.physics_Main.MxAODDetailed.p2950.h015.root
clone487_10x_data15_13TeV.00284285.physics_Main.MxAODDetailed.p2950.h015.root
clone488_10x_data15_13TeV.00284285.physics_Main.MxAODDetailed.p2950.h015.root
clone489_10x_data15_13TeV.00284285.physics_Main.MxAODDetailed.p2950.h015.root
clone490_10x_data15_13TeV.00284285.physics_Main.MxAODDetailed.p2950.h015.root
clone491_10x_data15_13TeV.00284285.physics_Main.MxAODDetailed.p2950.h015.root
clone492_10x_data15_13TeV.00284285.physics_Main.MxAODDetailed.p2950.h015.root
clone493_10x_data15_13TeV.00284285.physics_Main.MxAODDetailed.p2950.h015.root
clone494_10x_data15_13TeV.00284285.physics_Main.MxAODDetailed.p2950.h015.root
clone495_10x_data15_13TeV.00284285.physics_Main.MxAODDetailed.p2950.h015.root
clone496_10x_data15_13TeV.00284285.physics_Main.MxAODDetailed.p2950.h015.root
clone497_10x_data15_13TeV.00284285.physics_Main.MxAODDetailed.p2950.h015.root
clone498_10x_data15_13TeV.00284285.physics_Main.MxAODDetailed.p2950.h015.root
clone499_10x_data15_13TeV.00284285.physics_Main.MxAODDetailed.p2950.h015.root
clone500_10x_data15_13TeV.00284285.physics_Main.MxAODDetailed.p2950.h015.root
