st_physics_17133005_raw_1000005.daq
st_physics_17133005_raw_1500015.daq
st_physics_17133006_raw_1000021.daq
st_physics_17133006_raw_1500013.daq
st_physics_17133006_raw_1500017.daq
st_physics_17133006_raw_3500006.daq
st_physics_17133006_raw_3500024.daq
st_physics_17133006_raw_4000018.daq
st_physics_17133007_raw_2000022.daq
st_physics_17133007_raw_2500013.daq
st_physics_17133007_raw_2500016.daq
st_physics_17133007_raw_4000019.daq
st_physics_17133007_raw_4000023.daq
st_physics_17133007_raw_5000014.daq
st_physics_17133007_raw_5000026.daq
st_physics_17133008_raw_1000021.daq
st_physics_17133008_raw_3500021.daq
st_physics_17133008_raw_3500024.daq
st_physics_17133008_raw_4000029.daq
st_physics_17133008_raw_4500002.daq
st_physics_17133008_raw_5500012.daq
st_physics_17133010_raw_3000003.daq
st_physics_17133010_raw_3000019.daq
st_physics_17133010_raw_3000025.daq
st_physics_17133010_raw_3500024.daq
st_physics_17133010_raw_3500026.daq
st_physics_17133010_raw_4000016.daq
st_physics_17133010_raw_4500017.daq
st_physics_17133010_raw_4500027.daq
st_physics_17133010_raw_5000023.daq
st_physics_17133012_raw_1000018.daq
st_physics_17133012_raw_1000022.daq
st_physics_17133012_raw_1500014.daq
st_physics_17133012_raw_1500022.daq
st_physics_17133012_raw_2000002.daq
st_physics_17133012_raw_2000022.daq
st_physics_17133012_raw_2500002.daq
st_physics_17133012_raw_2500018.daq
st_physics_17133012_raw_3000002.daq
st_physics_17133012_raw_3500017.daq
st_physics_17133012_raw_3500019.daq
st_physics_17133012_raw_3500026.daq
st_physics_17133012_raw_4000002.daq
st_physics_17133012_raw_4000023.daq
st_physics_17133012_raw_4000029.daq
st_physics_17133012_raw_5000031.daq
st_physics_17133012_raw_5500031.daq
st_physics_17133013_raw_1000004.daq
st_physics_17133013_raw_1500021.daq
st_physics_17133013_raw_2000020.daq
st_physics_17133013_raw_2500027.daq
st_physics_17133013_raw_3000024.daq
st_physics_17133013_raw_3000027.daq
st_physics_17133013_raw_3500029.daq
st_physics_17133013_raw_4000021.daq
st_physics_17133013_raw_4000023.daq
st_physics_17133013_raw_4000025.daq
st_physics_17133013_raw_4000031.daq
st_physics_17133013_raw_4500027.daq
st_physics_17133013_raw_4500030.daq
st_physics_17133013_raw_5000018.daq
st_physics_17133013_raw_5500017.daq
st_physics_17133013_raw_5500018.daq
st_physics_17133013_raw_5500028.daq
st_physics_17133014_raw_1000013.daq
st_physics_17133014_raw_2500001.daq
st_physics_17133014_raw_2500015.daq
st_physics_17133014_raw_3000013.daq
st_physics_17133014_raw_4000017.daq
st_physics_17133014_raw_4000019.daq
st_physics_17133014_raw_4500002.daq
st_physics_17133014_raw_5000020.daq
st_physics_17133014_raw_5500003.daq
st_physics_17133015_raw_1500016.daq
st_physics_17133015_raw_1500020.daq
st_physics_17133015_raw_2500021.daq
st_physics_17133015_raw_3000025.daq
st_physics_17133015_raw_3500013.daq
st_physics_17133015_raw_3500024.daq
st_physics_17133015_raw_4000013.daq
st_physics_17133015_raw_4000027.daq
st_physics_17133015_raw_4000029.daq
st_physics_17133015_raw_4500002.daq
st_physics_17133015_raw_4500015.daq
st_physics_17133015_raw_4500022.daq
st_physics_17133015_raw_4500025.daq
st_physics_17133015_raw_5000003.daq
st_physics_17133015_raw_5000025.daq
st_physics_17133015_raw_5500011.daq
st_physics_17133015_raw_5500023.daq
st_physics_17133015_raw_5500029.daq
st_physics_17133016_raw_0000014.daq
st_physics_17133016_raw_1500003.daq
st_physics_17133016_raw_3500003.daq
st_physics_17133016_raw_5500012.daq
st_physics_17133017_raw_1000003.daq
st_physics_17133017_raw_4000002.daq
st_physics_17133018_raw_3000002.daq
st_physics_17133018_raw_4500002.daq
st_physics_17133018_raw_4500015.daq
st_physics_17133018_raw_5000018.daq
st_physics_17133019_raw_1000020.daq
st_physics_17133019_raw_1500001.daq
st_physics_17133019_raw_1500014.daq
st_physics_17133019_raw_2000017.daq
st_physics_17133019_raw_2500020.daq
st_physics_17133019_raw_3000003.daq
st_physics_17133019_raw_3000017.daq
st_physics_17133019_raw_3000023.daq
st_physics_17133019_raw_3500018.daq
st_physics_17133019_raw_4000025.daq
st_physics_17133019_raw_4000028.daq
st_physics_17133019_raw_4000030.daq
st_physics_17133019_raw_4500012.daq
st_physics_17133019_raw_4500016.daq
st_physics_17133019_raw_4500019.daq
st_physics_17133019_raw_4500021.daq
st_physics_17133019_raw_4500027.daq
st_physics_17133019_raw_5000023.daq
st_physics_17133019_raw_5000029.daq
st_physics_17133019_raw_5500014.daq
st_physics_17133019_raw_5500023.daq
st_physics_17133019_raw_5500031.daq
st_physics_17133021_raw_1000018.daq
st_physics_17133021_raw_1500016.daq
st_physics_17133021_raw_1500019.daq
st_physics_17133021_raw_2000018.daq
st_physics_17133021_raw_2500019.daq
st_physics_17133021_raw_3000015.daq
st_physics_17133021_raw_3500021.daq
st_physics_17133021_raw_4000004.daq
st_physics_17133021_raw_4500022.daq
st_physics_17133021_raw_5000021.daq
st_physics_17133021_raw_5000024.daq
st_physics_17133021_raw_5000025.daq
st_physics_17133021_raw_5500002.daq
st_physics_17133022_raw_1500015.daq
st_physics_17133022_raw_1500019.daq
st_physics_17133022_raw_2000002.daq
st_physics_17133022_raw_2000013.daq
st_physics_17133022_raw_2000015.daq
st_physics_17133022_raw_2000017.daq
st_physics_17133022_raw_2500002.daq
st_physics_17133022_raw_2500014.daq
st_physics_17133022_raw_2500015.daq
st_physics_17133022_raw_2500016.daq
st_physics_17133022_raw_3000002.daq
st_physics_17133022_raw_3000010.daq
st_physics_17133022_raw_3000014.daq
st_physics_17133022_raw_3000017.daq
st_physics_17133022_raw_3000021.daq
st_physics_17133022_raw_3000022.daq
st_physics_17133022_raw_3500002.daq
st_physics_17133022_raw_3500011.daq
st_physics_17133022_raw_3500015.daq
st_physics_17133022_raw_3500017.daq
st_physics_17133022_raw_3500021.daq
st_physics_17133022_raw_3500023.daq
st_physics_17133022_raw_4000004.daq
st_physics_17133022_raw_4000014.daq
st_physics_17133022_raw_4000015.daq
st_physics_17133022_raw_4000025.daq
st_physics_17133022_raw_4000026.daq
st_physics_17133022_raw_4500002.daq
st_physics_17133022_raw_4500015.daq
st_physics_17133022_raw_4500017.daq
st_physics_17133022_raw_4500019.daq
st_physics_17133022_raw_4500023.daq
st_physics_17133022_raw_4500024.daq
st_physics_17133022_raw_4500027.daq
st_physics_17133022_raw_4500028.daq
st_physics_17133022_raw_5000002.daq
st_physics_17133022_raw_5000010.daq
st_physics_17133022_raw_5000016.daq
st_physics_17133022_raw_5000017.daq
st_physics_17133022_raw_5000020.daq
st_physics_17133022_raw_5000022.daq
st_physics_17133022_raw_5000023.daq
st_physics_17133022_raw_5000025.daq
st_physics_17133022_raw_5500002.daq
st_physics_17133022_raw_5500013.daq
st_physics_17133022_raw_5500016.daq
st_physics_17133022_raw_5500018.daq
st_physics_17133022_raw_5500019.daq
st_physics_17133022_raw_5500022.daq
st_physics_17133022_raw_5500023.daq
st_physics_17133022_raw_5500025.daq
st_physics_17133022_raw_5500026.daq
st_physics_17133023_raw_0000009.daq
st_physics_17133023_raw_1000017.daq
st_physics_17133023_raw_1500002.daq
st_physics_17133023_raw_1500012.daq
st_physics_17133023_raw_2000003.daq
st_physics_17133023_raw_2000015.daq
st_physics_17133023_raw_2000016.daq
st_physics_17133023_raw_2500001.daq
st_physics_17133023_raw_2500014.daq
st_physics_17133023_raw_2500015.daq
st_physics_17133023_raw_3000002.daq
st_physics_17133023_raw_3000011.daq
st_physics_17133023_raw_3000017.daq
st_physics_17133023_raw_3000020.daq
st_physics_17133023_raw_3500004.daq
st_physics_17133023_raw_3500013.daq
st_physics_17133023_raw_3500015.daq
st_physics_17133023_raw_3500017.daq
st_physics_17133023_raw_4000014.daq
st_physics_17133023_raw_4000017.daq
st_physics_17133023_raw_4000018.daq
st_physics_17133023_raw_4500002.daq
st_physics_17133023_raw_4500014.daq
st_physics_17133023_raw_4500017.daq
st_physics_17133023_raw_4500019.daq
st_physics_17133023_raw_4500020.daq
st_physics_17133023_raw_5000002.daq
st_physics_17133023_raw_5000014.daq
st_physics_17133023_raw_5000015.daq
st_physics_17133023_raw_5000017.daq
st_physics_17133023_raw_5000018.daq
st_physics_17133023_raw_5500002.daq
st_physics_17133023_raw_5500014.daq
st_physics_17133023_raw_5500015.daq
st_physics_17133023_raw_5500016.daq
st_physics_17133023_raw_5500019.daq
st_physics_17133029_raw_1000002.daq
st_physics_17133029_raw_1000018.daq
st_physics_17133029_raw_1500015.daq
st_physics_17133029_raw_2000002.daq
st_physics_17133029_raw_2000013.daq
st_physics_17133029_raw_2000018.daq
st_physics_17133029_raw_2000019.daq
st_physics_17133029_raw_2500001.daq
st_physics_17133029_raw_2500015.daq
st_physics_17133029_raw_2500017.daq
st_physics_17133029_raw_2500019.daq
st_physics_17133029_raw_3000016.daq
st_physics_17133029_raw_3000020.daq
st_physics_17133029_raw_3000022.daq
st_physics_17133029_raw_3000023.daq
st_physics_17133029_raw_3500016.daq
st_physics_17133029_raw_3500018.daq
st_physics_17133029_raw_3500021.daq
st_physics_17133029_raw_3500022.daq
st_physics_17133029_raw_4000002.daq
st_physics_17133029_raw_4000017.daq
st_physics_17133029_raw_4000018.daq
st_physics_17133029_raw_4000019.daq
st_physics_17133029_raw_4000021.daq
st_physics_17133029_raw_4000022.daq
st_physics_17133029_raw_4500018.daq
st_physics_17133029_raw_4500019.daq
st_physics_17133029_raw_4500020.daq
st_physics_17133029_raw_4500023.daq
st_physics_17133029_raw_4500024.daq
st_physics_17133029_raw_5000003.daq
st_physics_17133029_raw_5000015.daq
st_physics_17133029_raw_5000020.daq
st_physics_17133029_raw_5000022.daq
st_physics_17133029_raw_5000023.daq
st_physics_17133029_raw_5500004.daq
st_physics_17133029_raw_5500015.daq
st_physics_17133029_raw_5500018.daq
st_physics_17133029_raw_5500020.daq
st_physics_17133029_raw_5500023.daq
st_physics_17133038_raw_1000004.daq
st_physics_17133038_raw_1000013.daq
st_physics_17133038_raw_1000014.daq
st_physics_17133038_raw_1000019.daq
st_physics_17133038_raw_1000021.daq
st_physics_17133038_raw_1000022.daq
st_physics_17133038_raw_1000023.daq
st_physics_17133038_raw_1000025.daq
st_physics_17133038_raw_1000027.daq
st_physics_17133038_raw_1000029.daq
st_physics_17133038_raw_1000031.daq
st_physics_17133038_raw_1000032.daq
st_physics_17133038_raw_1000034.daq
st_physics_17133038_raw_1000036.daq
st_physics_17133038_raw_1000038.daq
st_physics_17133038_raw_1000040.daq
st_physics_17133038_raw_1000042.daq
st_physics_17133038_raw_1500003.daq
st_physics_17133038_raw_1500012.daq
st_physics_17133038_raw_1500013.daq
st_physics_17133038_raw_1500016.daq
st_physics_17133038_raw_1500017.daq
st_physics_17133038_raw_1500021.daq
st_physics_17133038_raw_1500022.daq
st_physics_17133038_raw_1500023.daq
st_physics_17133038_raw_1500024.daq
st_physics_17133038_raw_1500027.daq
st_physics_17133038_raw_1500028.daq
st_physics_17133038_raw_1500031.daq
st_physics_17133038_raw_1500037.daq
st_physics_17133038_raw_1500040.daq
st_physics_17133038_raw_1500041.daq
st_physics_17133038_raw_2000003.daq
st_physics_17133038_raw_2000014.daq
st_physics_17133038_raw_2000015.daq
st_physics_17133038_raw_2000017.daq
st_physics_17133038_raw_2000018.daq
st_physics_17133038_raw_2000020.daq
st_physics_17133038_raw_2000021.daq
st_physics_17133038_raw_2000023.daq
st_physics_17133038_raw_2000025.daq
st_physics_17133038_raw_2000029.daq
st_physics_17133038_raw_2000030.daq
st_physics_17133038_raw_2000032.daq
st_physics_17133038_raw_2000036.daq
st_physics_17133038_raw_2000037.daq
st_physics_17133038_raw_2000038.daq
st_physics_17133038_raw_2000039.daq
st_physics_17133038_raw_2000042.daq
st_physics_17133038_raw_2500003.daq
st_physics_17133038_raw_2500008.daq
st_physics_17133038_raw_2500011.daq
st_physics_17133038_raw_2500025.daq
st_physics_17133038_raw_2500026.daq
st_physics_17133038_raw_2500027.daq
st_physics_17133038_raw_2500028.daq
st_physics_17133038_raw_2500030.daq
st_physics_17133038_raw_2500031.daq
st_physics_17133038_raw_2500032.daq
st_physics_17133038_raw_2500034.daq
st_physics_17133038_raw_2500035.daq
st_physics_17133038_raw_2500041.daq
st_physics_17133038_raw_2500042.daq
st_physics_17133038_raw_2500043.daq
st_physics_17133038_raw_2500045.daq
st_physics_17133038_raw_3000004.daq
st_physics_17133038_raw_3000014.daq
st_physics_17133038_raw_3000015.daq
st_physics_17133038_raw_3000016.daq
st_physics_17133038_raw_3000018.daq
st_physics_17133038_raw_3000020.daq
st_physics_17133038_raw_3000022.daq
st_physics_17133038_raw_3000023.daq
st_physics_17133038_raw_3000025.daq
st_physics_17133038_raw_3000026.daq
st_physics_17133038_raw_3000028.daq
st_physics_17133038_raw_3000030.daq
st_physics_17133038_raw_3000031.daq
st_physics_17133038_raw_3000033.daq
st_physics_17133038_raw_3000034.daq
st_physics_17133038_raw_3000036.daq
st_physics_17133038_raw_3000037.daq
st_physics_17133038_raw_3000038.daq
st_physics_17133038_raw_3000039.daq
st_physics_17133038_raw_3000040.daq
st_physics_17133038_raw_3000041.daq
st_physics_17133038_raw_3000044.daq
st_physics_17133038_raw_3000045.daq
st_physics_17133038_raw_3000047.daq
st_physics_17133038_raw_3000050.daq
st_physics_17133038_raw_3000051.daq
st_physics_17133038_raw_3000052.daq
st_physics_17133038_raw_3000054.daq
st_physics_17133038_raw_3000055.daq
st_physics_17133038_raw_3000056.daq
st_physics_17133038_raw_3000057.daq
st_physics_17133038_raw_3000059.daq
st_physics_17133038_raw_3500004.daq
st_physics_17133038_raw_3500013.daq
st_physics_17133038_raw_3500016.daq
st_physics_17133038_raw_3500017.daq
st_physics_17133038_raw_3500020.daq
st_physics_17133038_raw_3500023.daq
st_physics_17133038_raw_3500024.daq
st_physics_17133038_raw_3500026.daq
st_physics_17133038_raw_3500027.daq
st_physics_17133038_raw_3500030.daq
st_physics_17133038_raw_3500031.daq
st_physics_17133038_raw_3500033.daq
st_physics_17133038_raw_3500036.daq
st_physics_17133038_raw_3500038.daq
st_physics_17133038_raw_3500039.daq
st_physics_17133038_raw_3500040.daq
st_physics_17133038_raw_3500041.daq
st_physics_17133038_raw_3500045.daq
st_physics_17133038_raw_3500046.daq
st_physics_17133038_raw_3500048.daq
st_physics_17133038_raw_3500049.daq
st_physics_17133038_raw_3500053.daq
st_physics_17133038_raw_3500054.daq
st_physics_17133038_raw_3500056.daq
st_physics_17133038_raw_3500057.daq
st_physics_17133038_raw_3500058.daq
st_physics_17133038_raw_3500061.daq
st_physics_17133038_raw_4000013.daq
st_physics_17133038_raw_4000014.daq
st_physics_17133038_raw_4000016.daq
st_physics_17133038_raw_4000018.daq
st_physics_17133038_raw_4000021.daq
st_physics_17133038_raw_4000022.daq
st_physics_17133038_raw_4000023.daq
st_physics_17133038_raw_4000025.daq
st_physics_17133038_raw_4000030.daq
st_physics_17133038_raw_4000031.daq
st_physics_17133038_raw_4000032.daq
st_physics_17133038_raw_4000034.daq
st_physics_17135012_raw_5500027.daq
